digraph "Source.UI_MainWindow.Ui_MemesLab"
{
 // LATEX_PDF_SIZE
  edge [fontname="Helvetica",fontsize="10",labelfontname="Helvetica",labelfontsize="10"];
  node [fontname="Helvetica",fontsize="10",shape=record];
  Node1 [label="Source.UI_MainWindow.Ui\l_MemesLab",height=0.2,width=0.4,color="black", fillcolor="grey75", style="filled", fontcolor="black",tooltip=" "];
  Node2 -> Node1 [dir="back",color="midnightblue",fontsize="10",style="solid",fontname="Helvetica"];
  Node2 [label="object",height=0.2,width=0.4,color="grey75", fillcolor="white", style="filled",tooltip=" "];
  Node1 -> Node3 [dir="back",color="midnightblue",fontsize="10",style="solid",fontname="Helvetica"];
  Node3 [label="Source.cls_MainWindow.Main\lWindow",height=0.2,width=0.4,color="black", fillcolor="white", style="filled",URL="$class_source_1_1cls___main_window_1_1_main_window.html",tooltip=" "];
}
